
<svg width="288px" height="93px" viewBox="0 0 288 93" version="1.1" xmlns="http://www.w3.org/2000/svg" xmlns:xlink="http://www.w3.org/1999/xlink">
    <defs>
        <text id="text-cq7lrw0y0a-1" font-family="PingFangSC-Regular, PingFang SC" font-size="40" font-weight="normal" line-spacing="26" fill="#88F9FF">
            <tspan x="0" y="42">壹个客户的银行</tspan>
        </text>
        <filter x="-2.1%" y="-50.0%" width="104.3%" height="192.3%" filterUnits="objectBoundingBox" id="filter-cq7lrw0y0a-2">
            <feOffset dx="0" dy="0" in="SourceAlpha" result="shadowOffsetOuter1"></feOffset>
            <feGaussianBlur stdDeviation="2" in="shadowOffsetOuter1" result="shadowBlurOuter1"></feGaussianBlur>
            <feColorMatrix values="0 0 0 0 0   0 0 0 0 0.917289402   0 0 0 0 0.872938379  0 0 0 1 0" type="matrix" in="shadowBlurOuter1"></feColorMatrix>
        </filter>
    </defs>
    <g id="页面-1" stroke="none" stroke-width="1" fill="none" fill-rule="evenodd">
        <g id="1-2-2备份" transform="translate(-549.000000, -271.000000)" fill="#88F9FF">
            <g id="1" transform="translate(509.000000, 172.000000)">
                <g id="Group" transform="translate(44.000000, 110.000000)">
                    <g id="壹个客户的银行" fill-opacity="1">
                        <use filter="url(#filter-cq7lrw0y0a-2)" xlink:href="#text-cq7lrw0y0a-1"></use>
                        <use xlink:href="#text-cq7lrw0y0a-1"></use>
                    </g>
                    <text id="金融业分布式核心业务系统" font-family="PingFangSC-Regular, PingFang SC" font-size="22" font-weight="normal" line-spacing="24">
                        <tspan x="0" y="81">金融业分布式核心业务系统</tspan>
                    </text>
                </g>
            </g>
        </g>
    </g>
</svg>