
<svg width="208px" height="44px" viewBox="0 0 208 44" version="1.1" xmlns="http://www.w3.org/2000/svg" xmlns:xlink="http://www.w3.org/1999/xlink">
    <defs>
        <radialGradient cx="50%" cy="0%" fx="50%" fy="0%" r="237.717221%" gradientTransform="translate(0.500000,0.000000),scale(0.211538,1.000000),rotate(6.117251),translate(-0.500000,-0.000000)" id="radialGradient-ht-mc4-0yy-1">
            <stop stop-color="#76DEFF" offset="0%"></stop>
            <stop stop-color="#4074C2" offset="100%"></stop>
        </radialGradient>
        <polygon id="path-ht-mc4-0yy-2" points="16.9684211 0 208 0 208 31.3703704 192.673684 44 0 44 0 12.2222222"></polygon>
        <filter x="-3.1%" y="-14.8%" width="106.2%" height="129.5%" filterUnits="objectBoundingBox" id="filter-ht-mc4-0yy-3">
            <feGaussianBlur stdDeviation="6.5" in="SourceAlpha" result="shadowBlurInner1"></feGaussianBlur>
            <feOffset dx="0" dy="0" in="shadowBlurInner1" result="shadowOffsetInner1"></feOffset>
            <feComposite in="shadowOffsetInner1" in2="SourceAlpha" operator="arithmetic" k2="-1" k3="1" result="shadowInnerInner1"></feComposite>
            <feColorMatrix values="0 0 0 0 0.18389956   0 0 0 0 0.530483797   0 0 0 0 0.852758291  0 0 0 0.477819056 0" type="matrix" in="shadowInnerInner1"></feColorMatrix>
        </filter>
    </defs>
    <g id="页面-1" stroke="none" stroke-width="1" fill="none" fill-rule="evenodd">
        <g id="1-2-2备份" transform="translate(-1481.000000, -457.000000)">
            <g id="编组-3" transform="translate(1061.000000, 172.000000)">
                <g id="编组-6" transform="translate(420.000000, 285.000000)">
                    <g id="矩形">
                        <use fill="url(#radialGradient-ht-mc4-0yy-1)" fill-rule="evenodd" xlink:href="#path-ht-mc4-0yy-2"></use>
                        <use fill="black" fill-opacity="1" filter="url(#filter-ht-mc4-0yy-3)" xlink:href="#path-ht-mc4-0yy-2"></use>
                        <path stroke="#88F9FF" stroke-width="1.0720512" d="M207.463974,0.5360256 L207.463974,31.1175081 L192.481283,43.4639744 L0.5360256,43.4639744 L0.5360256,12.4967275 L17.1413714,0.5360256 L207.463974,0.5360256 Z" stroke-linejoin="square"></path>
                    </g>
                    <text id="壹个客户的银行" font-family="PingFangSC-Regular, PingFang SC" font-size="21.6" font-weight="normal" fill="#FFFFFF">
                        <tspan x="27.9" y="29">壹个客户的银行</tspan>
                    </text>
                </g>
            </g>
        </g>
    </g>
</svg>