
<svg width="164px" height="178px" viewBox="0 0 164 178" version="1.1" xmlns="http://www.w3.org/2000/svg" xmlns:xlink="http://www.w3.org/1999/xlink">
    <defs>
        <linearGradient x1="44.3074569%" y1="93.2666306%" x2="44.3079146%" y2="7.11384715%" id="linearGradient-z2_f0u4yr1-1">
            <stop stop-color="#61B1DC" offset="0%"></stop>
            <stop stop-color="#88F9FF" offset="99.9155405%"></stop>
        </linearGradient>
        <polygon id="path-z2_f0u4yr1-2" points="136 6 -6 6 24 86 -6 166 136 166 166 86"></polygon>
        <filter x="-9.8%" y="-10.0%" width="119.2%" height="120.0%" filterUnits="objectBoundingBox" id="filter-z2_f0u4yr1-3">
            <feMorphology radius="8" operator="erode" in="SourceAlpha" result="shadowSpreadInner1"></feMorphology>
            <feGaussianBlur stdDeviation="10" in="shadowSpreadInner1" result="shadowBlurInner1"></feGaussianBlur>
            <feOffset dx="0" dy="0" in="shadowBlurInner1" result="shadowOffsetInner1"></feOffset>
            <feComposite in="shadowOffsetInner1" in2="SourceAlpha" operator="arithmetic" k2="-1" k3="1" result="shadowInnerInner1"></feComposite>
            <feColorMatrix values="0 0 0 0 0.207843137   0 0 0 0 0.952941176   0 0 0 0 0.925490196  0 0 0 0.300945149 0" type="matrix" in="shadowInnerInner1"></feColorMatrix>
        </filter>
    </defs>
    <g id="页面-1" stroke="none" stroke-width="1" fill="none" fill-rule="evenodd">
        <g id="2-1-1备份" transform="translate(-38.000000, -472.000000)">
            <g id="编组-8" transform="translate(40.000000, 475.000000)">
                <g id="路径-2备份-8" opacity="0.900000036" transform="translate(80.000000, 86.000000) rotate(-90.000000) translate(-80.000000, -86.000000) ">
                    <use fill="#0B2F50" fill-rule="evenodd" xlink:href="#path-z2_f0u4yr1-2"></use>
                    <use fill="black" fill-opacity="1" filter="url(#filter-z2_f0u4yr1-3)" xlink:href="#path-z2_f0u4yr1-2"></use>
                    <use stroke="url(#linearGradient-z2_f0u4yr1-1)" stroke-width="4" xlink:href="#path-z2_f0u4yr1-2"></use>
                </g>
                <text id="数字化-管理系统" font-family="PingFangSC-Regular, PingFang SC" font-size="30" font-weight="normal" fill="#88F9FF">
                    <tspan x="35" y="74">数字化</tspan>
                    <tspan x="20" y="116">管理系统</tspan>
                </text>
            </g>
        </g>
    </g>
</svg>