
<svg width="1851px" height="114px" viewBox="0 0 1851 114" version="1.1" xmlns="http://www.w3.org/2000/svg" xmlns:xlink="http://www.w3.org/1999/xlink">
    <defs>
        <linearGradient x1="79.3896941%" y1="100%" x2="17.6464127%" y2="100%" id="linearGradient-nkn9ba0xrd-1">
            <stop stop-color="#88F9FF" offset="0%"></stop>
            <stop stop-color="#01132A" offset="100%"></stop>
        </linearGradient>
        <radialGradient cx="50%" cy="0%" fx="50%" fy="0%" r="178.546895%" gradientTransform="translate(0.500000,0.000000),scale(0.885164,1.000000),rotate(113.650931),translate(-0.500000,-0.000000)" id="radialGradient-nkn9ba0xrd-2">
            <stop stop-color="#88F9FF" offset="0%"></stop>
            <stop stop-color="#3F9EBD" offset="100%"></stop>
        </radialGradient>
        <radialGradient cx="50%" cy="0%" fx="50%" fy="0%" r="175.409091%" id="radialGradient-nkn9ba0xrd-3">
            <stop stop-color="#88F9FF" offset="0%"></stop>
            <stop stop-color="#3F9EBD" offset="100%"></stop>
        </radialGradient>
        <radialGradient cx="50%" cy="0%" fx="50%" fy="0%" r="563.005476%" gradientTransform="translate(0.500000,0.000000),scale(0.117687,1.000000),rotate(163.112424),translate(-0.500000,-0.000000)" id="radialGradient-nkn9ba0xrd-4">
            <stop stop-color="#88F9FF" offset="0%"></stop>
            <stop stop-color="#3F9EBD" offset="100%"></stop>
        </radialGradient>
        <radialGradient cx="50%" cy="0%" fx="50%" fy="0%" r="5138.09896%" gradientTransform="translate(0.500000,0.000000),scale(0.012346,1.000000),rotate(178.175918),translate(-0.500000,-0.000000)" id="radialGradient-nkn9ba0xrd-5">
            <stop stop-color="#88F9FF" offset="0%"></stop>
            <stop stop-color="#3F9EBD" offset="100%"></stop>
        </radialGradient>
        <radialGradient cx="50%" cy="0%" fx="50%" fy="0%" r="1201.50332%" gradientTransform="translate(0.500000,0.000000),scale(0.053264,1.000000),rotate(172.176540),translate(-0.500000,-0.000000)" id="radialGradient-nkn9ba0xrd-6">
            <stop stop-color="#88F9FF" offset="0%"></stop>
            <stop stop-color="#3F9EBD" offset="100%"></stop>
        </radialGradient>
        <polygon id="path-nkn9ba0xrd-7" points="115 0 124.888223 0 148 29 137.734607 29"></polygon>
        <filter x="-4.5%" y="-5.2%" width="109.1%" height="110.3%" filterUnits="objectBoundingBox" id="filter-nkn9ba0xrd-8">
            <feMorphology radius="1" operator="erode" in="SourceAlpha" result="shadowSpreadInner1"></feMorphology>
            <feGaussianBlur stdDeviation="0.5" in="shadowSpreadInner1" result="shadowBlurInner1"></feGaussianBlur>
            <feOffset dx="1" dy="0" in="shadowBlurInner1" result="shadowOffsetInner1"></feOffset>
            <feComposite in="shadowOffsetInner1" in2="SourceAlpha" operator="arithmetic" k2="-1" k3="1" result="shadowInnerInner1"></feComposite>
            <feColorMatrix values="0 0 0 0 0.270579268   0 0 0 0 0.91930305   0 0 0 0 1  0 0 0 1 0" type="matrix" in="shadowInnerInner1"></feColorMatrix>
        </filter>
        <polygon id="path-nkn9ba0xrd-9" points="69 0 78.8882227 0 102 29 91.7346073 29"></polygon>
        <filter x="-4.5%" y="-5.2%" width="109.1%" height="110.3%" filterUnits="objectBoundingBox" id="filter-nkn9ba0xrd-10">
            <feMorphology radius="1" operator="erode" in="SourceAlpha" result="shadowSpreadInner1"></feMorphology>
            <feGaussianBlur stdDeviation="0.5" in="shadowSpreadInner1" result="shadowBlurInner1"></feGaussianBlur>
            <feOffset dx="1" dy="0" in="shadowBlurInner1" result="shadowOffsetInner1"></feOffset>
            <feComposite in="shadowOffsetInner1" in2="SourceAlpha" operator="arithmetic" k2="-1" k3="1" result="shadowInnerInner1"></feComposite>
            <feColorMatrix values="0 0 0 0 0.270579268   0 0 0 0 0.91930305   0 0 0 0 1  0 0 0 1 0" type="matrix" in="shadowInnerInner1"></feColorMatrix>
        </filter>
        <polygon id="path-nkn9ba0xrd-11" points="92 0 101.888223 0 125 29 114.734607 29"></polygon>
        <filter x="-4.5%" y="-5.2%" width="109.1%" height="110.3%" filterUnits="objectBoundingBox" id="filter-nkn9ba0xrd-12">
            <feMorphology radius="1" operator="erode" in="SourceAlpha" result="shadowSpreadInner1"></feMorphology>
            <feGaussianBlur stdDeviation="0.5" in="shadowSpreadInner1" result="shadowBlurInner1"></feGaussianBlur>
            <feOffset dx="1" dy="0" in="shadowBlurInner1" result="shadowOffsetInner1"></feOffset>
            <feComposite in="shadowOffsetInner1" in2="SourceAlpha" operator="arithmetic" k2="-1" k3="1" result="shadowInnerInner1"></feComposite>
            <feColorMatrix values="0 0 0 0 0.270579268   0 0 0 0 0.91930305   0 0 0 0 1  0 0 0 1 0" type="matrix" in="shadowInnerInner1"></feColorMatrix>
        </filter>
        <polygon id="path-nkn9ba0xrd-13" points="46 0 55.8882227 0 79 29 68.7346073 29"></polygon>
        <filter x="-4.5%" y="-5.2%" width="109.1%" height="110.3%" filterUnits="objectBoundingBox" id="filter-nkn9ba0xrd-14">
            <feMorphology radius="1" operator="erode" in="SourceAlpha" result="shadowSpreadInner1"></feMorphology>
            <feGaussianBlur stdDeviation="0.5" in="shadowSpreadInner1" result="shadowBlurInner1"></feGaussianBlur>
            <feOffset dx="1" dy="0" in="shadowBlurInner1" result="shadowOffsetInner1"></feOffset>
            <feComposite in="shadowOffsetInner1" in2="SourceAlpha" operator="arithmetic" k2="-1" k3="1" result="shadowInnerInner1"></feComposite>
            <feColorMatrix values="0 0 0 0 0.270579268   0 0 0 0 0.91930305   0 0 0 0 1  0 0 0 1 0" type="matrix" in="shadowInnerInner1"></feColorMatrix>
        </filter>
        <polygon id="path-nkn9ba0xrd-15" points="23 0 32.8882227 0 56 29 45.7346073 29"></polygon>
        <filter x="-4.5%" y="-5.2%" width="109.1%" height="110.3%" filterUnits="objectBoundingBox" id="filter-nkn9ba0xrd-16">
            <feMorphology radius="1" operator="erode" in="SourceAlpha" result="shadowSpreadInner1"></feMorphology>
            <feGaussianBlur stdDeviation="0.5" in="shadowSpreadInner1" result="shadowBlurInner1"></feGaussianBlur>
            <feOffset dx="1" dy="0" in="shadowBlurInner1" result="shadowOffsetInner1"></feOffset>
            <feComposite in="shadowOffsetInner1" in2="SourceAlpha" operator="arithmetic" k2="-1" k3="1" result="shadowInnerInner1"></feComposite>
            <feColorMatrix values="0 0 0 0 0.270579268   0 0 0 0 0.91930305   0 0 0 0 1  0 0 0 1 0" type="matrix" in="shadowInnerInner1"></feColorMatrix>
        </filter>
        <polygon id="path-nkn9ba0xrd-17" points="4.68958206e-13 0 9.88822275 0 33 29 22.7346073 29"></polygon>
        <filter x="-4.5%" y="-5.2%" width="109.1%" height="110.3%" filterUnits="objectBoundingBox" id="filter-nkn9ba0xrd-18">
            <feMorphology radius="1" operator="erode" in="SourceAlpha" result="shadowSpreadInner1"></feMorphology>
            <feGaussianBlur stdDeviation="0.5" in="shadowSpreadInner1" result="shadowBlurInner1"></feGaussianBlur>
            <feOffset dx="1" dy="0" in="shadowBlurInner1" result="shadowOffsetInner1"></feOffset>
            <feComposite in="shadowOffsetInner1" in2="SourceAlpha" operator="arithmetic" k2="-1" k3="1" result="shadowInnerInner1"></feComposite>
            <feColorMatrix values="0 0 0 0 0.270579268   0 0 0 0 0.91930305   0 0 0 0 1  0 0 0 1 0" type="matrix" in="shadowInnerInner1"></feColorMatrix>
        </filter>
        <polygon id="path-nkn9ba0xrd-19" points="115 0 124.888223 0 148 29 137.734607 29"></polygon>
        <filter x="-4.5%" y="-5.2%" width="109.1%" height="110.3%" filterUnits="objectBoundingBox" id="filter-nkn9ba0xrd-20">
            <feMorphology radius="1" operator="erode" in="SourceAlpha" result="shadowSpreadInner1"></feMorphology>
            <feGaussianBlur stdDeviation="0.5" in="shadowSpreadInner1" result="shadowBlurInner1"></feGaussianBlur>
            <feOffset dx="1" dy="0" in="shadowBlurInner1" result="shadowOffsetInner1"></feOffset>
            <feComposite in="shadowOffsetInner1" in2="SourceAlpha" operator="arithmetic" k2="-1" k3="1" result="shadowInnerInner1"></feComposite>
            <feColorMatrix values="0 0 0 0 0.270579268   0 0 0 0 0.91930305   0 0 0 0 1  0 0 0 1 0" type="matrix" in="shadowInnerInner1"></feColorMatrix>
        </filter>
        <polygon id="path-nkn9ba0xrd-21" points="69 0 78.8882227 0 102 29 91.7346073 29"></polygon>
        <filter x="-4.5%" y="-5.2%" width="109.1%" height="110.3%" filterUnits="objectBoundingBox" id="filter-nkn9ba0xrd-22">
            <feMorphology radius="1" operator="erode" in="SourceAlpha" result="shadowSpreadInner1"></feMorphology>
            <feGaussianBlur stdDeviation="0.5" in="shadowSpreadInner1" result="shadowBlurInner1"></feGaussianBlur>
            <feOffset dx="1" dy="0" in="shadowBlurInner1" result="shadowOffsetInner1"></feOffset>
            <feComposite in="shadowOffsetInner1" in2="SourceAlpha" operator="arithmetic" k2="-1" k3="1" result="shadowInnerInner1"></feComposite>
            <feColorMatrix values="0 0 0 0 0.270579268   0 0 0 0 0.91930305   0 0 0 0 1  0 0 0 1 0" type="matrix" in="shadowInnerInner1"></feColorMatrix>
        </filter>
        <polygon id="path-nkn9ba0xrd-23" points="92 0 101.888223 0 125 29 114.734607 29"></polygon>
        <filter x="-4.5%" y="-5.2%" width="109.1%" height="110.3%" filterUnits="objectBoundingBox" id="filter-nkn9ba0xrd-24">
            <feMorphology radius="1" operator="erode" in="SourceAlpha" result="shadowSpreadInner1"></feMorphology>
            <feGaussianBlur stdDeviation="0.5" in="shadowSpreadInner1" result="shadowBlurInner1"></feGaussianBlur>
            <feOffset dx="1" dy="0" in="shadowBlurInner1" result="shadowOffsetInner1"></feOffset>
            <feComposite in="shadowOffsetInner1" in2="SourceAlpha" operator="arithmetic" k2="-1" k3="1" result="shadowInnerInner1"></feComposite>
            <feColorMatrix values="0 0 0 0 0.270579268   0 0 0 0 0.91930305   0 0 0 0 1  0 0 0 1 0" type="matrix" in="shadowInnerInner1"></feColorMatrix>
        </filter>
        <polygon id="path-nkn9ba0xrd-25" points="46 0 55.8882227 0 79 29 68.7346073 29"></polygon>
        <filter x="-4.5%" y="-5.2%" width="109.1%" height="110.3%" filterUnits="objectBoundingBox" id="filter-nkn9ba0xrd-26">
            <feMorphology radius="1" operator="erode" in="SourceAlpha" result="shadowSpreadInner1"></feMorphology>
            <feGaussianBlur stdDeviation="0.5" in="shadowSpreadInner1" result="shadowBlurInner1"></feGaussianBlur>
            <feOffset dx="1" dy="0" in="shadowBlurInner1" result="shadowOffsetInner1"></feOffset>
            <feComposite in="shadowOffsetInner1" in2="SourceAlpha" operator="arithmetic" k2="-1" k3="1" result="shadowInnerInner1"></feComposite>
            <feColorMatrix values="0 0 0 0 0.270579268   0 0 0 0 0.91930305   0 0 0 0 1  0 0 0 1 0" type="matrix" in="shadowInnerInner1"></feColorMatrix>
        </filter>
        <polygon id="path-nkn9ba0xrd-27" points="23 0 32.8882227 0 56 29 45.7346073 29"></polygon>
        <filter x="-4.5%" y="-5.2%" width="109.1%" height="110.3%" filterUnits="objectBoundingBox" id="filter-nkn9ba0xrd-28">
            <feMorphology radius="1" operator="erode" in="SourceAlpha" result="shadowSpreadInner1"></feMorphology>
            <feGaussianBlur stdDeviation="0.5" in="shadowSpreadInner1" result="shadowBlurInner1"></feGaussianBlur>
            <feOffset dx="1" dy="0" in="shadowBlurInner1" result="shadowOffsetInner1"></feOffset>
            <feComposite in="shadowOffsetInner1" in2="SourceAlpha" operator="arithmetic" k2="-1" k3="1" result="shadowInnerInner1"></feComposite>
            <feColorMatrix values="0 0 0 0 0.270579268   0 0 0 0 0.91930305   0 0 0 0 1  0 0 0 1 0" type="matrix" in="shadowInnerInner1"></feColorMatrix>
        </filter>
        <polygon id="path-nkn9ba0xrd-29" points="4.68958206e-13 0 9.88822275 0 33 29 22.7346073 29"></polygon>
        <filter x="-4.5%" y="-5.2%" width="109.1%" height="110.3%" filterUnits="objectBoundingBox" id="filter-nkn9ba0xrd-30">
            <feMorphology radius="1" operator="erode" in="SourceAlpha" result="shadowSpreadInner1"></feMorphology>
            <feGaussianBlur stdDeviation="0.5" in="shadowSpreadInner1" result="shadowBlurInner1"></feGaussianBlur>
            <feOffset dx="1" dy="0" in="shadowBlurInner1" result="shadowOffsetInner1"></feOffset>
            <feComposite in="shadowOffsetInner1" in2="SourceAlpha" operator="arithmetic" k2="-1" k3="1" result="shadowInnerInner1"></feComposite>
            <feColorMatrix values="0 0 0 0 0.270579268   0 0 0 0 0.91930305   0 0 0 0 1  0 0 0 1 0" type="matrix" in="shadowInnerInner1"></feColorMatrix>
        </filter>
        <linearGradient x1="100%" y1="50%" x2="0%" y2="50%" id="linearGradient-nkn9ba0xrd-31">
            <stop stop-color="#0B4950" stop-opacity="0.95" offset="0%"></stop>
            <stop stop-color="#1B5C88" stop-opacity="0" offset="100%"></stop>
        </linearGradient>
        <radialGradient cx="94.4534897%" cy="33.3650777%" fx="94.4534897%" fy="33.3650777%" r="178.630428%" gradientTransform="translate(0.944535,0.333651),scale(0.241228,1.000000),rotate(180.000000),translate(-0.944535,-0.333651)" id="radialGradient-nkn9ba0xrd-32">
            <stop stop-color="#4487C2" offset="0%"></stop>
            <stop stop-color="#3F73BD" stop-opacity="0" offset="100%"></stop>
        </radialGradient>
        <radialGradient cx="50%" cy="0%" fx="50%" fy="0%" r="412.683975%" gradientTransform="translate(0.500000,0.000000),scale(0.167333,1.000000),rotate(156.652401),translate(-0.500000,-0.000000)" id="radialGradient-nkn9ba0xrd-33">
            <stop stop-color="#88F9FF" offset="0%"></stop>
            <stop stop-color="#3F9EBD" offset="100%"></stop>
        </radialGradient>
        <polygon id="path-nkn9ba0xrd-34" points="696.4 5.55111512e-14 1093.9 0 1134.08874 39.1786809 1093.9 80 696.4 80 656 39.159051"></polygon>
        <filter x="-2.4%" y="-14.4%" width="104.8%" height="128.7%" filterUnits="objectBoundingBox" id="filter-nkn9ba0xrd-35">
            <feGaussianBlur stdDeviation="11.5" in="SourceAlpha" result="shadowBlurInner1"></feGaussianBlur>
            <feOffset dx="0" dy="0" in="shadowBlurInner1" result="shadowOffsetInner1"></feOffset>
            <feComposite in="shadowOffsetInner1" in2="SourceAlpha" operator="arithmetic" k2="-1" k3="1" result="shadowInnerInner1"></feComposite>
            <feColorMatrix values="0 0 0 0 0.18389956   0 0 0 0 0.530483797   0 0 0 0 0.852758291  0 0 0 0.3 0" type="matrix" in="shadowInnerInner1"></feColorMatrix>
        </filter>
        <polygon id="path-nkn9ba0xrd-36" points="8.43762103e-13 0 423.325961 0 461.579937 48 37.6296948 48"></polygon>
        <filter x="-0.3%" y="-3.1%" width="100.6%" height="106.2%" filterUnits="objectBoundingBox" id="filter-nkn9ba0xrd-37">
            <feMorphology radius="1" operator="erode" in="SourceAlpha" result="shadowSpreadInner1"></feMorphology>
            <feGaussianBlur stdDeviation="0.5" in="shadowSpreadInner1" result="shadowBlurInner1"></feGaussianBlur>
            <feOffset dx="1" dy="0" in="shadowBlurInner1" result="shadowOffsetInner1"></feOffset>
            <feComposite in="shadowOffsetInner1" in2="SourceAlpha" operator="arithmetic" k2="-1" k3="1" result="shadowInnerInner1"></feComposite>
            <feColorMatrix values="0 0 0 0 0.270579268   0 0 0 0 0.91930305   0 0 0 0 1  0 0 0 1 0" type="matrix" in="shadowInnerInner1"></feColorMatrix>
        </filter>
    </defs>
    <g id="页面-1" stroke="none" stroke-width="1" fill="none" fill-rule="evenodd">
        <g id="1-2-1" transform="translate(-71.000000, -8.000000)">
            <g id="Group-4" transform="translate(71.000000, 9.000000)">
                <g id="编组-2">
                    <g id="标题层" transform="translate(4.000000, 0.000000)">
                        <line x1="622" y1="55" x2="0.1640625" y2="55" id="直线" stroke="url(#linearGradient-nkn9ba0xrd-1)" stroke-width="4" stroke-linecap="square"></line>
                        <path d="M625.655146,53 L680.059198,107.402344 L678.062146,109.399146 L670.742146,109.399146 L616.343146,55 L618.342146,53 L625.655146,53 Z" id="合并形状" fill="url(#radialGradient-nkn9ba0xrd-2)" fill-rule="nonzero"></path>
                        <line x1="614" y1="70" x2="652" y2="107" id="直线-2" stroke="url(#radialGradient-nkn9ba0xrd-3)" stroke-width="2" stroke-linecap="square"></line>
                        <polyline id="直线-2" stroke="url(#radialGradient-nkn9ba0xrd-4)" stroke-width="4" stroke-linecap="square" points="1110 2 1162.40234 54.4023438 1195 88.5 1845 88.5"></polyline>
                        <line x1="1108" y1="1" x2="946.591564" y2="1" id="直线-4" stroke="url(#radialGradient-nkn9ba0xrd-5)" stroke-width="4" stroke-linecap="square"></line>
                        <polygon id="直线-3" fill="url(#radialGradient-nkn9ba0xrd-6)" fill-rule="nonzero" points="672.402344 109.402344 672.402344 105.402344 747.5 105.402344 747.5 109.402344"></polygon>
                        <circle id="椭圆形" fill="url(#radialGradient-nkn9ba0xrd-3)" fill-rule="nonzero" cx="753" cy="107" r="6"></circle>
                    </g>
                    <g id="编组" transform="translate(582.000000, 25.500000) scale(-1, 1) translate(-582.000000, -25.500000) translate(508.000000, 11.000000)">
                        <g id="矩形复制-11">
                            <use fill="#0B2D4E" fill-rule="evenodd" xlink:href="#path-nkn9ba0xrd-7"></use>
                            <use fill="black" fill-opacity="1" filter="url(#filter-nkn9ba0xrd-8)" xlink:href="#path-nkn9ba0xrd-7"></use>
                            <path stroke="#88F9FF" stroke-width="2" d="M124.406454,1 L145.924316,28 L138.221317,28 L117.054613,1 L124.406454,1 Z" stroke-linejoin="square"></path>
                        </g>
                        <g id="矩形复制-12">
                            <use fill="#0B2D4E" fill-rule="evenodd" xlink:href="#path-nkn9ba0xrd-9"></use>
                            <use fill="black" fill-opacity="1" filter="url(#filter-nkn9ba0xrd-10)" xlink:href="#path-nkn9ba0xrd-9"></use>
                            <path stroke="#88F9FF" stroke-width="2" d="M78.406454,1 L99.9243155,28 L92.2213168,28 L71.0546135,1 L78.406454,1 Z" stroke-linejoin="square"></path>
                        </g>
                        <g id="矩形复制-13">
                            <use fill="#0B2D4E" fill-rule="evenodd" xlink:href="#path-nkn9ba0xrd-11"></use>
                            <use fill="black" fill-opacity="1" filter="url(#filter-nkn9ba0xrd-12)" xlink:href="#path-nkn9ba0xrd-11"></use>
                            <path stroke="#88F9FF" stroke-width="2" d="M101.406454,1 L122.924316,28 L115.221317,28 L94.0546135,1 L101.406454,1 Z" stroke-linejoin="square"></path>
                        </g>
                        <g id="矩形复制-14">
                            <use fill="#0B2D4E" fill-rule="evenodd" xlink:href="#path-nkn9ba0xrd-13"></use>
                            <use fill="black" fill-opacity="1" filter="url(#filter-nkn9ba0xrd-14)" xlink:href="#path-nkn9ba0xrd-13"></use>
                            <path stroke="#88F9FF" stroke-width="2" d="M55.406454,1 L76.9243155,28 L69.2213168,28 L48.0546135,1 L55.406454,1 Z" stroke-linejoin="square"></path>
                        </g>
                        <g id="矩形复制-15">
                            <use fill="#0B2D4E" fill-rule="evenodd" xlink:href="#path-nkn9ba0xrd-15"></use>
                            <use fill="black" fill-opacity="1" filter="url(#filter-nkn9ba0xrd-16)" xlink:href="#path-nkn9ba0xrd-15"></use>
                            <path stroke="#88F9FF" stroke-width="2" d="M32.406454,1 L53.9243155,28 L46.2213168,28 L25.0546135,1 L32.406454,1 Z" stroke-linejoin="square"></path>
                        </g>
                        <g id="矩形复制-16">
                            <use fill="#0B2D4E" fill-rule="evenodd" xlink:href="#path-nkn9ba0xrd-17"></use>
                            <use fill="black" fill-opacity="1" filter="url(#filter-nkn9ba0xrd-18)" xlink:href="#path-nkn9ba0xrd-17"></use>
                            <path stroke="#88F9FF" stroke-width="2" d="M9.40645396,1 L30.9243155,28 L23.2213168,28 L2.05461349,1 L9.40645396,1 Z" stroke-linejoin="square"></path>
                        </g>
                    </g>
                    <g id="编组复制" transform="translate(1176.000000, 29.000000)">
                        <g id="矩形复制-11">
                            <use fill="#0B2D4E" fill-rule="evenodd" xlink:href="#path-nkn9ba0xrd-19"></use>
                            <use fill="black" fill-opacity="1" filter="url(#filter-nkn9ba0xrd-20)" xlink:href="#path-nkn9ba0xrd-19"></use>
                            <path stroke="#88F9FF" stroke-width="2" d="M124.406454,1 L145.924316,28 L138.221317,28 L117.054613,1 L124.406454,1 Z" stroke-linejoin="square"></path>
                        </g>
                        <g id="矩形复制-12">
                            <use fill="#0B2D4E" fill-rule="evenodd" xlink:href="#path-nkn9ba0xrd-21"></use>
                            <use fill="black" fill-opacity="1" filter="url(#filter-nkn9ba0xrd-22)" xlink:href="#path-nkn9ba0xrd-21"></use>
                            <path stroke="#88F9FF" stroke-width="2" d="M78.406454,1 L99.9243155,28 L92.2213168,28 L71.0546135,1 L78.406454,1 Z" stroke-linejoin="square"></path>
                        </g>
                        <g id="矩形复制-13">
                            <use fill="#0B2D4E" fill-rule="evenodd" xlink:href="#path-nkn9ba0xrd-23"></use>
                            <use fill="black" fill-opacity="1" filter="url(#filter-nkn9ba0xrd-24)" xlink:href="#path-nkn9ba0xrd-23"></use>
                            <path stroke="#88F9FF" stroke-width="2" d="M101.406454,1 L122.924316,28 L115.221317,28 L94.0546135,1 L101.406454,1 Z" stroke-linejoin="square"></path>
                        </g>
                        <g id="矩形复制-14">
                            <use fill="#0B2D4E" fill-rule="evenodd" xlink:href="#path-nkn9ba0xrd-25"></use>
                            <use fill="black" fill-opacity="1" filter="url(#filter-nkn9ba0xrd-26)" xlink:href="#path-nkn9ba0xrd-25"></use>
                            <path stroke="#88F9FF" stroke-width="2" d="M55.406454,1 L76.9243155,28 L69.2213168,28 L48.0546135,1 L55.406454,1 Z" stroke-linejoin="square"></path>
                        </g>
                        <g id="矩形复制-15">
                            <use fill="#0B2D4E" fill-rule="evenodd" xlink:href="#path-nkn9ba0xrd-27"></use>
                            <use fill="black" fill-opacity="1" filter="url(#filter-nkn9ba0xrd-28)" xlink:href="#path-nkn9ba0xrd-27"></use>
                            <path stroke="#88F9FF" stroke-width="2" d="M32.406454,1 L53.9243155,28 L46.2213168,28 L25.0546135,1 L32.406454,1 Z" stroke-linejoin="square"></path>
                        </g>
                        <g id="矩形复制-16">
                            <use fill="#0B2D4E" fill-rule="evenodd" xlink:href="#path-nkn9ba0xrd-29"></use>
                            <use fill="black" fill-opacity="1" filter="url(#filter-nkn9ba0xrd-30)" xlink:href="#path-nkn9ba0xrd-29"></use>
                            <path stroke="#88F9FF" stroke-width="2" d="M9.40645396,1 L30.9243155,28 L23.2213168,28 L2.05461349,1 L9.40645396,1 Z" stroke-linejoin="square"></path>
                        </g>
                    </g>
                    <g id="标题" transform="translate(0.000000, 11.000000)">
                        <path d="M1.88860293,18.201727 L147.614325,18.4845798 L179.937566,59.8 L167.79225,59.8 L136.59225,19.0857143 L1.61956333,19.0857143 L1.88860293,18.201727 Z" id="矩形复制-11" stroke="url(#radialGradient-nkn9ba0xrd-32)" stroke-width="2.4" fill="url(#linearGradient-nkn9ba0xrd-31)" opacity="0.39687965" transform="translate(91.200000, 39.000000) scale(1, -1) translate(-91.200000, -39.000000) "></path>
                        <g id="矩形">
                            <use fill-opacity="0.95" fill="#0B2F50" fill-rule="evenodd" xlink:href="#path-nkn9ba0xrd-34"></use>
                            <use fill="black" fill-opacity="1" filter="url(#filter-nkn9ba0xrd-35)" xlink:href="#path-nkn9ba0xrd-34"></use>
                            <path stroke="url(#radialGradient-nkn9ba0xrd-33)" stroke-width="3" d="M1093.28983,1.5 L1131.9623,39.2005141 L1093.27181,78.5 L697.026095,78.5 L658.132071,39.1814643 L697.00766,1.5 L1093.28983,1.5 Z" stroke-linejoin="square"></path>
                        </g>
                        <path d="M1.88860293,18.201727 L147.614325,18.4845798 L179.937566,59.8 L167.79225,59.8 L136.59225,19.0857143 L1.61956333,19.0857143 L1.88860293,18.201727 Z" id="矩形复制-11" stroke="url(#radialGradient-nkn9ba0xrd-32)" stroke-width="2.4" fill="url(#linearGradient-nkn9ba0xrd-31)" opacity="0.39687965"></path>
                        <text id="产品生态" font-family="PingFangSC-Medium, PingFang SC" font-size="33" font-weight="400" letter-spacing="2" fill="#BEE2FF">
                            <tspan x="825" y="52">产品生态</tspan>
                        </text>
                    </g>
                </g>
                <g id="编组-17" transform="translate(1334.710031, 19.000000)">
                    <g id="矩形复制-11备份" opacity="0.300000012">
                        <use fill="#0B2D4E" fill-rule="evenodd" xlink:href="#path-nkn9ba0xrd-36"></use>
                        <use fill="black" fill-opacity="1" filter="url(#filter-nkn9ba0xrd-37)" xlink:href="#path-nkn9ba0xrd-36"></use>
                        <path stroke="#88F9FF" stroke-width="2" d="M2.05461349,1 L422.844192,1 L459.504253,47 L38.1164043,47 L2.05461349,1 Z" stroke-linejoin="square"></path>
                    </g>
                    <text id="专业，科技创造价值" font-family="PingFangSC-Regular, PingFang SC" font-size="24" font-weight="normal" letter-spacing="8.57142857" fill="#BEE2FF">
                        <tspan x="86.7185401" y="33">专业，科技创造价值</tspan>
                    </text>
                </g>
            </g>
        </g>
    </g>
</svg>