
<svg width="129px" height="46px" viewBox="0 0 129 46" version="1.1" xmlns="http://www.w3.org/2000/svg" xmlns:xlink="http://www.w3.org/1999/xlink">
    <g id="页面-1" stroke="none" stroke-width="1" fill="none" fill-rule="evenodd">
        <g id="1-2-1" transform="translate(-1752.000000, -1005.000000)">
            <g id="返回按钮" transform="translate(1753.000000, 1006.000000)">
                <polygon id="矩形" stroke-opacity="0.8" stroke="#1CCFE2" fill-opacity="0.216881793" fill="#578DCD" transform="translate(63.500000, 22.000000) scale(-1, 1) translate(-63.500000, -22.000000) " points="9.5 0 127 0 127 34.5 117 44 0 44 0 8"></polygon>
                <text id="下一页" font-family="PingFangSC-Regular, PingFang SC" font-size="18" font-weight="normal" line-spacing="18" fill="#78D5FF">
                    <tspan x="26" y="30">下一页</tspan>
                </text>
                <path d="M108.450004,33.1930107 C108.120003,33.1930107 107.900004,33.0820455 107.680002,32.8601155 L98.8800002,24.2048423 C98.3300004,23.650018 98,22.8732618 98,22.0965057 C98,21.3197495 98.3300004,20.5429959 98.8800002,19.988169 L107.680002,11.3328958 C108.120003,10.8890347 108.780004,10.8890347 109.220003,11.3328958 C109.660004,11.7767568 109.660004,12.4425471 109.220003,12.8864055 L100.420001,21.5416787 C100.310001,21.6526438 100.200001,21.8745738 100.200001,22.0965031 C100.200001,22.3184331 100.310001,22.4293982 100.420001,22.6513274 L109.220003,31.3066006 C109.660004,31.7504617 109.660004,32.4162519 109.220003,32.8601103 C109.110003,33.0820403 108.780001,33.1930107 108.450001,33.1930107 L108.450004,33.1930107 Z" id="路径" fill="#78E4FF" transform="translate(103.775002, 22.096505) scale(-1, 1) translate(-103.775002, -22.096505) "></path>
            </g>
        </g>
    </g>
</svg>