
<svg width="129px" height="46px" viewBox="0 0 129 46" version="1.1" xmlns="http://www.w3.org/2000/svg" xmlns:xlink="http://www.w3.org/1999/xlink">
    <g id="页面-1" stroke="none" stroke-width="1" fill="none" fill-rule="evenodd">
        <g id="1-2-1" transform="translate(-39.000000, -1005.000000)">
            <g id="返回按钮" transform="translate(40.000000, 1006.000000)">
                <polygon id="矩形" stroke-opacity="0.8" stroke="#1CCFE2" fill-opacity="0.216881793" fill="#578DCD" points="9.5 0 127 0 127 34.5 117 44 0 44 0 8"></polygon>
                <text id="返回" font-family="PingFangSC-Regular, PingFang SC" font-size="18" font-weight="normal" line-spacing="18" fill="#78D5FF">
                    <tspan x="55" y="30">返回</tspan>
                </text>
                <path d="M27.4500036,33.1930107 C27.1200032,33.1930107 26.9000038,33.0820455 26.6800018,32.8601155 L17.8800002,24.2048423 C17.3300004,23.650018 17,22.8732618 17,22.0965057 C17,21.3197495 17.3300004,20.5429959 17.8800002,19.988169 L26.6800018,11.3328958 C27.1200032,10.8890347 27.780004,10.8890347 28.2200027,11.3328958 C28.6600041,11.7767568 28.6600041,12.4425471 28.2200027,12.8864055 L19.4200011,21.5416787 C19.3100009,21.6526438 19.2000009,21.8745738 19.2000009,22.0965031 C19.2000009,22.3184331 19.3100011,22.4293982 19.4200011,22.6513274 L28.2200027,31.3066006 C28.6600041,31.7504617 28.6600041,32.4162519 28.2200027,32.8601103 C28.1100025,33.0820403 27.7800014,33.1930107 27.450001,33.1930107 L27.4500036,33.1930107 Z" id="路径" fill="#78E4FF"></path>
            </g>
        </g>
    </g>
</svg>