
<svg width="347px" height="88px" viewBox="0 0 347 88" version="1.1" xmlns="http://www.w3.org/2000/svg" xmlns:xlink="http://www.w3.org/1999/xlink">
    <defs>
        <filter x="-0.5%" y="-2.3%" width="100.9%" height="104.6%" filterUnits="objectBoundingBox" id="filter-6s5eek6gri-1">
            <feGaussianBlur stdDeviation="0.532224" in="SourceGraphic"></feGaussianBlur>
        </filter>
        <radialGradient cx="50%" cy="0%" fx="50%" fy="0%" r="213.238416%" gradientTransform="translate(0.500000,0.000000),scale(0.236152,1.000000),rotate(6.822648),translate(-0.500000,-0.000000)" id="radialGradient-6s5eek6gri-2">
            <stop stop-color="#76DEFF" offset="0%"></stop>
            <stop stop-color="#4074C2" offset="100%"></stop>
        </radialGradient>
        <polygon id="path-6s5eek6gri-3" points="21.6592512 0 324.048155 0.071176799 343 16.2569414 343 66.0592942 324.048155 81 21.6592512 80.9288232 0 65.9881174 0 16.1857646"></polygon>
        <filter x="-4.4%" y="-18.5%" width="108.7%" height="137.0%" filterUnits="objectBoundingBox" id="filter-6s5eek6gri-4">
            <feGaussianBlur stdDeviation="15" in="SourceAlpha" result="shadowBlurInner1"></feGaussianBlur>
            <feOffset dx="0" dy="0" in="shadowBlurInner1" result="shadowOffsetInner1"></feOffset>
            <feComposite in="shadowOffsetInner1" in2="SourceAlpha" operator="arithmetic" k2="-1" k3="1" result="shadowInnerInner1"></feComposite>
            <feColorMatrix values="0 0 0 0 0.18389956   0 0 0 0 0.530483797   0 0 0 0 0.852758291  0 0 0 0.477819056 0" type="matrix" in="shadowInnerInner1"></feColorMatrix>
        </filter>
    </defs>
    <g id="页面-1" stroke="none" stroke-width="1" fill="none" fill-rule="evenodd">
        <g id="1-2-2" transform="translate(-789.000000, -850.000000)">
            <g id="Group-2" transform="translate(789.000000, 850.000000)">
                <polygon id="矩形" fill="#005174" filter="url(#filter-6s5eek6gri-1)" points="6.39098137 69.7645258 19.9549069 78.4684288 319.57445 80.3018843 338.070112 66.1053644 338.070112 16 345 21.3424344 345 69.4088445 324.32908 86 24.7022808 85.9289172 3 71.0079405"></polygon>
                <g id="矩形">
                    <use fill-opacity="0.6" fill="url(#radialGradient-6s5eek6gri-2)" fill-rule="evenodd" xlink:href="#path-6s5eek6gri-3"></use>
                    <use fill="black" fill-opacity="1" filter="url(#filter-6s5eek6gri-4)" xlink:href="#path-6s5eek6gri-3"></use>
                    <path stroke="#88F9FF" stroke-width="2.5014528" d="M22.0748232,1.25082425 L323.586625,1.3217946 L341.749274,16.833549 L341.749274,65.4526553 L323.614564,79.7491715 L22.0489204,79.6781885 L1.2507264,65.3314461 L1.2507264,16.8124855 L22.0748232,1.25082425 Z" stroke-linejoin="square"></path>
                </g>
                <text id="查看详情" font-family="PingFangSC-Medium, PingFang SC" font-size="31.26816" font-weight="400" fill="#EAF6FF">
                    <tspan x="108.46368" y="50">查看详情</tspan>
                </text>
            </g>
        </g>
    </g>
</svg>