
{
  "responseCode": "f7e52dfcfe3f4d4eab7cd483c98b2cb0",
  "responseData": "2018-03-31 13:18:31",
  "status": "SUCCESS",
  "errorCode": "",
  "errorMessage": "",
  "responseBody": [
    {
        "product_name":"机械设备",
        "type":"exp",
        "amt":75.63,
        "currency":"美元",
        "unit":"亿元"
    },
    {
        "product_name":"触摸屏传感器",
        "type":"exp",
        "amt":88.11,
        "currency":"美元",
        "unit":"亿元"
    },
    {
        "product_name":"液晶显示屏",
        "type":"exp",
        "amt":95.17,
        "currency":"美元",
        "unit":"亿元"
    },
    {
        "product_name":"电器及电子产品",
        "type":"exp",
        "amt":95.32,
        "currency":"美元",
        "unit":"亿元"
    },

    {
        "product_name":"半导体器件",
        "type":"imp",
        "amt":18.08,
        "currency":"美元",
        "unit":"亿元"
    },
    {
        "product_name":"液晶显示板",
        "type":"imp",
        "amt":18.1,
        "currency":"美元",
        "unit":"亿元"
    },
    {
        "product_name":"集成电路",
        "type":"imp",
        "amt":22.18,
        "currency":"美元",
        "unit":"亿元"
    },
    {
        "product_name":"机电产品",
        "type":"imp",
        "amt":25.31,
        "currency":"美元",
        "unit":"亿元"
    }
  ]
}

