
{
  "responseCode": "f7e52dfcfe3f4d4eab7cd483c98b2cb0",
  "responseData": "2018-03-31 13:18:31",
  "status": "SUCCESS",
  "errorCode": "",
  "errorMessage": "",
  "responseBody": [
    {
        "type_name":"提示企业",
        "percentage":51
    },
    {
        "type_name":"书面核实",
        "percentage":24
    },
    {
        "type_name":"制发核查",
        "percentage":16
    },
    {
        "type_name":"制发稽查",
        "percentage":7
    },
    {
        "type_name":"移交缉私",
        "percentage":2
    }
  ]
}

